﻿<?xml version="1.0" encoding="UTF-8" standalone="no"?>
<!DOCTYPE svg PUBLIC "-//W3C//DTD SVG 20010904//EN"
"http://www.w3.org/TR/2001/REC-SVG-20010904/DTD/svg10.dtd">
<svg xmlns="http://www.w3.org/2000/svg" xmlns:xlink="http://www.w3.org/1999/xlink" version="1.0" width="450" height="300" id="Flag of Senegal">
<rect width="150" height="300" fill="#009146" id="green stripe" />
<rect width="150" height="300" x="150" fill="#F7F708" id="yellow stripe" />
<rect width="150" height="300" x="300" fill="#DC171D" id="red stripe" />
<polygon id="star" transform="translate(225,150) scale(50)" fill="#009146" points="0,-1 
   0.224513988289792686220972575898763393789606,-0.309016994374947424102293417182819058860155
   0.951056516295153572116439333379382143405699,-0.309016994374947424102293417182819058860155
   0.363,0.118
   0.587,0.809
   0,0.381966011250105151795413165634361882279691
   -0.587785252292473129168705954639072768597652,0.809016994374947424102293417182819058860155
   -0.363271264002680442947733378740309374808046,0.118033988749894848204586834365638117720309
   -0.951056516295153572116439333379382143405699,-0.309016994374947424102293417182819058860155
   -0.224513988289792686220972575898763393789606,-0.309016994374947424102293417182819058860155" />
</svg>